Introduction to multiple testing
…
## Parsed with column specification:
## cols(
##   .default = col_double(),
##   X1 = col_integer()
## )

## See spec(...) for full column specifications.

dnase

## # A tibble: 250,000 x 69
##       X1          X2         X3         X4         X5          X6
##    <int>       <dbl>      <dbl>      <dbl>      <dbl>       <dbl>
##  1     2 -2.07939782 -1.0919890  0.4358841  1.0771965  0.18202807
##  2     3  1.04012044 -0.6540832  0.5439511  0.5433546  0.33554692
##  3     5  0.61603730  1.6216130 -1.9550178  0.8038654 -1.17296933
##  4     6 -0.08366167  0.1037396 -0.7161806 -0.4290121 -1.05492685
##  5     7  0.71635444 -1.5309856  0.1680760 -1.3674195  0.18572840
##  6     8  0.21563757 -0.1195649 -0.4001214  0.1126866  1.67232404
##  7    16 -1.62173082 -1.9355604  1.5993482 -0.1015715  0.41055978
##  8    17  0.37951245 -1.4808371 -0.0526740 -0.9285295  0.25286624
##  9    18  1.70117468  0.3848198 -0.3243192  1.0260985  0.44060164
## 10    19 -1.94900586 -0.9384677 -1.2035325 -0.2577110  0.08515044
## # ... with 249,990 more rows, and 63 more variables: X7 <dbl>, X8 <dbl>,
## #   X9 <dbl>, X10 <dbl>, X11 <dbl>, X12 <dbl>, X13 <dbl>, X14 <dbl>,
## #   X15 <dbl>, X16 <dbl>, X17 <dbl>, X18 <dbl>, X19 <dbl>, X20 <dbl>,
## #   X21 <dbl>, X22 <dbl>, X23 <dbl>, X24 <dbl>, X25 <dbl>, X26 <dbl>,
## #   X27 <dbl>, X28 <dbl>, X29 <dbl>, X30 <dbl>, X31 <dbl>, X32 <dbl>,
## #   X33 <dbl>, X34 <dbl>, X35 <dbl>, X36 <dbl>, X37 <dbl>, X38 <dbl>,
## #   X39 <dbl>, X40 <dbl>, X41 <dbl>, X42 <dbl>, X43 <dbl>, X44 <dbl>,
## #   X45 <dbl>, X46 <dbl>, X47 <dbl>, X48 <dbl>, X49 <dbl>, X50 <dbl>,
## #   X51 <dbl>, X52 <dbl>, X53 <dbl>, X54 <dbl>, X55 <dbl>, X56 <dbl>,
…
